{
  "title": "Wordle answers",
  "url": "https://wordle.yanoagenda.com",
  "domain": "upwordle.yanoagenda.com",
  "description": "Wordle daily answers and word definitions",
  "genre": "website",
  "googleAnalyticsId": "UA-180902164-4",
  "sendWebVitals": false,
  "feed": {
    "subtitle": "Wordle answers",
    "filename": "feed.xml",
    "path": "/feed/feed.xml",
    "id": "https://wordle.yanoagenda.com"
  },
  "jsonfeed": {
    "path": "/feed/feed.json",
    "url": "https://wordle.yanoagenda.com/feed/feed.json"
  },
  "author": {
    "name": "smallygdala",
    "twitterHandle": "noagendavideo"
  },
  "publisher": {
    "name": "smallygdala"
  }
}
